       Time    Filtered_mly_GDP    Smoothed_mly_GDP
       2000.01     434370.47     434193.63
       2000.02     435197.70     435114.23
       2000.03     436280.24     436540.54
       2000.04     437167.11     438021.59
       2000.05     438878.73     440357.63
       2000.06     439468.03     439775.48
       2000.07     440926.37     441907.38
       2000.08     440049.86     441675.41
       2000.09     442676.90     442939.51
       2000.10     444071.38     444908.15
       2000.11     444071.67     445443.21
       2000.12     446934.22     447138.04
       2001.01     446479.03     447128.43
       2001.02     447349.27     448375.18
       2001.03     449210.14     449315.69
       2001.04     447428.37     447764.66
       2001.05     448466.30     449129.21
       2001.06     449308.03     449542.73
       2001.07     447689.68     448437.47
       2001.08     450619.14     451953.14
       2001.09     450538.47     450868.79
       2001.10     449793.41     450845.88
       2001.11     448522.32     450020.96
       2001.12     451077.67     451024.36
       2002.01     451225.24     451055.38
       2002.02     451742.51     451666.99
       2002.03     452584.63     452820.73
       2002.04     453507.59     454259.87
       2002.05     452702.47     454024.77
       2002.06     454230.82     454536.15
       2002.07     453127.74     454100.59
       2002.08     455415.51     457048.64
       2002.09     456085.84     456375.56
       2002.10     455306.41     456229.54
       2002.11     456532.68     457552.92
       2002.12     455072.59     454623.44
       2003.01     457770.46     456339.40
       2003.02     459085.88     457159.06
       2003.03     456222.29     456446.44
       2003.04     456210.96     456925.15
       2003.05     453507.88     454825.51
       2003.06     454914.89     455289.93
       2003.07     457024.20     458219.18
       2003.08     456809.74     458823.67
       2003.09     458847.95     459214.64
       2003.10     461662.60     462830.95
       2003.11     459436.74     461396.73
       2003.12     462532.01     462878.12
       2004.01     463566.79     464669.57
       2004.02     464997.19     466888.75
       2004.03     467177.43     467560.98
       2004.04     467424.44     468646.51
       2004.05     467065.05     468959.63
       2004.06     470603.82     470753.16
       2004.07     471226.54     471702.35
       2004.08     467298.85     468287.58
       2004.09     472767.26     473168.77
       2004.10     473775.04     475054.35
       2004.11     472009.30     473912.02
       2004.12     474713.73     474759.83
       2005.01     476949.76     477096.65
       2005.02     475932.12     476129.37
       2005.03     473990.11     473966.38
       2005.04     477079.02     477003.40
       2005.05     475891.47     476052.70
       2005.06     476402.30     476773.89
       2005.07     476222.89     477406.86
       2005.08     475884.84     477789.99
       2005.09     481323.24     481563.15
       2005.10     478084.66     478849.03
       2005.11     482765.73     484285.31
       2005.12     483601.40     484152.36
       2006.01     483087.63     484843.10
       2006.02     482647.86     485448.06
       2006.03     488486.81     488808.94
       2006.04     488385.73     489412.12
       2006.05     490780.59     492156.93
       2006.06     492399.80     492231.36
       2006.07     491012.73     490476.01
       2006.08     490592.99     490129.98
       2006.09     492503.25     492942.41
       2006.10     492020.00     493419.25
       2006.11     491801.10     494065.49
       2006.12     496854.47     497155.56
       2007.01     495696.72     496656.06
       2007.02     497252.70     498841.61
       2007.03     500610.08     500866.33
       2007.04     499200.01     500016.47
       2007.05     502542.07     503725.51
       2007.06     503961.35     503948.52
       2007.07     504430.24     504389.36
       2007.08     505600.34     505456.12
       2007.09     503232.79     503117.22
       2007.10     506572.06     506203.84
       2007.11     505095.21     504645.70
       2007.12     505380.40     505501.36
       2008.01     506860.23     507245.63
       2008.02     508477.87     508729.06
       2008.03     507662.82     507236.31
       2008.04     510723.75     509364.81
       2008.05     505467.53     503541.75
       2008.06     503394.67     503476.15
       2008.07     504519.12     504778.71
       2008.08     503123.10     503407.54
       2008.09     503283.10     503153.45
       2008.10     501370.38     500957.27
       2008.11     495755.01     495172.14
       2008.12     493705.34     493733.59
       2009.01     489768.62     489858.64
       2009.02     488491.38     488606.74
       2009.03     486975.10     486953.02
       2009.04     487137.52     487067.19
       2009.05     488628.57     488072.32
       2009.06     489507.99     488887.79
       2009.07     489366.94     487390.85
       2009.08     491468.52     489005.54
       2009.09     489549.42     490129.31
       2009.10     489054.56     490902.21
       2009.11     490458.94     492891.91
       2009.12     493297.98     492933.69
       2010.01     494987.21     493826.51
       2010.02     494871.20     493176.20
       2010.03     495468.50     495469.49
       2010.04     495545.46     495548.62
       2010.05     496816.23     497027.80
       2010.06     497235.43     497518.48
       2010.07     498295.88     499197.73
       2010.08     497579.46     498871.54
       2010.09     500871.19     500836.33
       2010.10     501164.99     501053.92
       2010.11     502970.12     503015.53
       2010.12     505087.81     505371.85
       2011.01     506869.29     507774.30
       2011.02     507791.33     509050.85
       2011.03     508483.05     508397.35
       2011.04     507189.39     506916.35
       2011.05     511171.56     510863.38
       2011.06     508194.10     508318.17
       2011.07     509748.18     510143.48
       2011.08     509450.01     509968.62
       2011.09     509651.34     509570.79
       2011.10     510339.68     510083.06
       2011.11     513060.24     512728.68
       2011.12     510988.48     511047.77
       2012.01     510664.96     510853.86
       2012.02     512155.94     512252.70
       2012.03     512244.24     511999.14
       2012.04     512921.94     512140.99
       2012.05     511684.11     510427.95
       2012.06     509990.46     509832.87
       2012.07     510980.91     510478.77
       2012.08     513562.29     513028.91
       2012.09     511616.98     511890.82
       2012.10     510009.93     510882.43
       2012.11     510505.68     511329.16
       2012.12     512801.08     512184.01
       2013.01     512337.28     510371.16
       2013.02     514005.31     511291.87
       2013.03     511935.55     512152.98
       2013.04     513877.75     514570.52
       2013.05     514240.98     515272.82
       2013.06     514478.37     514505.35
       2013.07     514069.80     514155.77
       2013.08     514849.96     514940.19
       2013.09     515321.20     515272.84
       2013.10     515972.32     515818.22
       2013.11     518503.00     518281.18
       2013.12     517394.69     517399.20
       2014.01     516156.28     516170.67
       2014.02     518366.58     518299.77
       2014.03     518278.68     518158.56
       2014.04     519027.25     518644.52
       2014.05     517544.17     517001.05
       2014.06     519578.70     519600.63
       2014.07     521178.52     521248.38
       2014.08     519975.21     520151.59
       2014.09     521248.49     521350.13
       2014.10     520226.94     520550.77
       2014.11     519771.36     520095.40
       2014.12     523829.38     523625.53
       2015.01     524025.40     523375.88
       2015.02     525449.68     524165.81
       2015.03     524190.40     523732.31
       2015.04     523977.68     522518.10
       2015.05     525935.28     523952.10
       2015.06     523834.45     524038.51
       2015.07     523442.79     524092.96
       2015.08     525310.21     526011.56
       2015.09     527520.46     527180.59
       2015.10     528667.18     527584.26
       2015.11     527074.35     525828.89
       2015.12     526814.15     527274.55
       2016.01     529235.03     530701.95
       2016.02     528634.82     530239.06
       2016.03     530488.66     529751.69
       2016.04     532388.89     530040.75
       2016.05     531604.14     528108.98
       2016.06     527863.74     527775.37
       2016.07     528774.01     528492.43
       2016.08     531193.40     530838.57
       2016.09     530096.06     530173.40
       2016.10     530329.76     530576.17
       2016.11     533549.81     534241.93
       2016.12     534138.68     534592.90
       2017.01     535054.37     536501.62
       2017.02     534944.73     536967.22
       2017.03     539185.61     539059.97
       2017.04     539917.46     539517.12
       2017.05     542397.09     541966.46
       2017.06     541642.07     541853.03
       2017.07     542744.66     543416.81
       2017.08     543636.71     544485.97
       2017.09     546527.52     546346.03
       2017.10     547960.87     547382.58
       2017.11     549134.27     548505.26
       2017.12     550835.88     551131.06
       2018.01     547226.58     548167.10
       2018.02     549595.28     550852.75
       2018.03     552102.89     551943.45
       2018.04     551506.53     550998.50
       2018.05     551317.03     550303.45
       2018.06     552594.79     552223.65
       2018.07     553490.77     552308.24
       2018.08     554812.75     553274.63
       2018.09     552358.46     552617.62
       2018.10     554301.38     555127.11
       2018.11     553888.61     554857.94
       2018.12     556822.93     556498.75
       2019.01     558496.46     557463.57
       2019.02     559454.57     557846.33
       2019.03     557054.32     556918.61
       2019.04     558517.78     558085.37
       2019.05     561544.21     560994.81
       2019.06     559072.92     559185.52
       2019.07     560091.11     560449.88
       2019.08     559984.83     560508.98
       2019.09     561723.74     561723.74
       2019.10     563064.07     563064.07
       2019.11     564002.59     564002.59

