"","country","time","E","Y","P"
"1","Germany",2008-01-01,35977.0039690869,658254.6,0.190505068355048
"2","Germany",2008-02-01,35447.6018241021,657650.04,0.197233054695753
"3","Germany",2008-03-01,36057.8819526493,656530.86,0.184126704792858
"4","Germany",2008-04-01,39696.4981391741,658253.15,0.185904809435304
"5","Germany",2008-05-01,37158.5986757841,653867.64,0.205142390920744
"6","Germany",2008-06-01,36245.0582432991,655283.7,0.209812259944836
"7","Germany",2008-07-01,37288.7327498561,649704.49,0.219948120841809
"8","Germany",2008-08-01,39223.4575993205,654306.33,0.203685671096757
"9","Germany",2008-09-01,38663.7288033676,651025.29,0.196917846363999
"10","Germany",2008-10-01,37695.8155157343,649354.93,0.195778540413108
"11","Germany",2008-11-01,36484.1991460228,641554.04,0.17311543126358
"12","Germany",2008-12-01,34930.0602999641,632892.03,0.150767359036525
"13","Germany",2009-01-01,35407.4538950693,615886.62,0.15351309676678
"14","Germany",2009-02-01,35077.5919529777,608463.31,0.143329383827051
"15","Germany",2009-03-01,35522.1234437858,609466.36,0.138978101098604
"16","Germany",2009-04-01,34134.4262988492,606517.59,0.137769579706942
"17","Germany",2009-05-01,33626.6226863233,614480.54,0.135773458215529
"18","Germany",2009-06-01,35364.1178330594,615333.66,0.129812014384485
"19","Germany",2009-07-01,34955.4742554081,612058.21,0.129802255034002
"20","Germany",2009-08-01,34088.6923795532,613600.18,0.134052453380623
"21","Germany",2009-09-01,34949.6622037092,621154.51,0.133180050592265
"22","Germany",2009-10-01,34791.0125323193,618313.8,0.13926853688993
"23","Germany",2009-11-01,34488.0128225245,621195.13,0.14263069429171
"24","Germany",2009-12-01,36339.9892391862,621139.66,0.142307004276921
"25","Germany",2010-01-01,35691.6720588523,623819.69,0.148179871625776
"26","Germany",2010-02-01,36096.0113545069,622747.11,0.149630720885927
"27","Germany",2010-03-01,35194.0404920353,629018.5,0.159894614852636
"28","Germany",2010-04-01,34724.0400509762,633912.04,0.160972043432182
"29","Germany",2010-05-01,37320.3873036915,641422.27,0.159218196458736
"30","Germany",2010-06-01,35299.846005475,642177.49,0.170120861957196
"31","Germany",2010-07-01,34949.4559468882,641982.72,0.170402933989703
"32","Germany",2010-08-01,34332.1962532968,644740.43,0.170705901246482
"33","Germany",2010-09-01,33931.746884246,646720.75,0.177343884479096
"34","Germany",2010-10-01,34767.9944246908,648316.93,0.169299227806793
"35","Germany",2010-11-01,34817.2943711987,647708.31,0.177514332898545
"36","Germany",2010-12-01,36335.488646782,653350.76,0.180632310106543
"37","Germany",2011-01-01,35281.1182369599,658768.94,0.191352203155482
"38","Germany",2011-02-01,34775.7453354108,663698.15,0.198661249598221
"39","Germany",2011-03-01,34554.0175750574,664433.2,0.201656286287222
"40","Germany",2011-04-01,34497.9520916542,662865.87,0.202761000521976
"41","Germany",2011-05-01,35709.9726094447,664287.39,0.201366539876033
"42","Germany",2011-06-01,33921.7619345541,661633.73,0.183216637413922
"43","Germany",2011-07-01,33880.0402756563,669742.52,0.206603105877342
"44","Germany",2011-08-01,36835.9060143591,669584.31,0.208071768582121
"45","Germany",2011-09-01,33257.9627862839,666650.18,0.210031703686021
"46","Germany",2011-10-01,33658.7378690303,668670.09,0.209878735980431
"47","Germany",2011-11-01,34243.7831596622,667021.87,0.217369799827169
"48","Germany",2011-12-01,33998.3402350851,664834.34,0.221065526103362
"49","Germany",2012-01-01,33229.7430093912,667002.36,0.217972129377522
"50","Germany",2012-02-01,38468.9278999675,667426.37,0.219181153927022
"51","Germany",2012-03-01,34104.000551704,670080.67,0.212182382952588
"52","Germany",2012-04-01,34879.5001249356,667091.96,0.207955713481619
"53","Germany",2012-05-01,33676.6522811371,671394.68,0.212201378113429
"54","Germany",2012-06-01,35096.0781475043,669377.06,0.209213100970591
"55","Germany",2012-07-01,34746.8287802013,671433.65,0.212228816586487
"56","Germany",2012-08-01,34483.4945621185,672018.77,0.21812391580026
"57","Germany",2012-09-01,34936.5961345548,670280.78,0.214948928953355
"58","Germany",2012-10-01,35912.82877958,669065.41,0.227000535302271
"59","Germany",2012-11-01,35459.2386809138,667859.2,0.230815869369626
"60","Germany",2012-12-01,35067.0167103545,668423.29,0.21370681120437
"61","Germany",2013-01-01,35926.3702662611,664084.84,0.217058046227798
"62","Germany",2013-02-01,36145.3234708246,664514.24,0.208804446896588
"63","Germany",2013-03-01,39127.0450486959,667315.32,0.192455204249608
"64","Germany",2013-04-01,37862.2039892236,670533.32,0.206778641864767
"65","Germany",2013-05-01,35785.6806440944,670582.56,0.210451936119048
"66","Germany",2013-06-01,35683.4499588465,675761.92,0.205373255824997
"67","Germany",2013-07-01,35439.8716791939,673072.01,0.208016998357673
"68","Germany",2013-08-01,35806.7280141618,678034.01,0.202387927439865
"69","Germany",2013-09-01,35558.3742923049,676672.58,0.199101995800649
"70","Germany",2013-10-01,33424.4598829669,674640.16,0.219978557593009
"71","Germany",2013-11-01,33920.1592991428,679261.08,0.205750593175592
"72","Germany",2013-12-01,33789.1396881123,680795.36,0.208158460766318
"73","Germany",2014-01-01,34153.2112045196,683353.68,0.214155131550661
"74","Germany",2014-02-01,31470.7635016314,684952.9,0.215363406263996
"75","Germany",2014-03-01,33896.9262322393,686095.52,0.205964304845801
"76","Germany",2014-04-01,33720.3069254799,685131.67,0.207399721360494
"77","Germany",2014-05-01,35595.7441392749,683897.98,0.188724092011573
"78","Germany",2014-06-01,33951.8308566293,684743.65,0.19158714044531
"79","Germany",2014-07-01,34793.6316211773,690475.55,0.196459061252535
"80","Germany",2014-08-01,33447.681906425,683456.47,0.209497530475515
"81","Germany",2014-09-01,35299.2347813184,689903.58,0.195392212544556
"82","Germany",2014-10-01,35555.0476056706,692014.53,0.185148800226159
"83","Germany",2014-11-01,35550.3753353974,693183.03,0.175986294816491
"84","Germany",2014-12-01,35712.2135972009,696456.84,0.169533092331964
"85","Germany",2015-01-01,33748.7123786565,691988.2,0.159771835912253
"86","Germany",2015-02-01,34522.5117305381,692422.37,0.165680238153845
"87","Germany",2015-03-01,34757.0490456885,693051.33,0.162124129483614
"88","Germany",2015-04-01,33964.7581780988,695659.49,0.163283289071867
"89","Germany",2015-05-01,32212.661807397,697102.09,0.171387953526703
"90","Germany",2015-06-01,34697.6530139845,697697.52,0.167792545317862
"91","Germany",2015-07-01,34808.720176282,701941.82,0.154975357594787
"92","Germany",2015-08-01,35296.6891830951,697804.51,0.149383046216426
"93","Germany",2015-09-01,35975.842904231,700145.97,0.146674597566453
"94","Germany",2015-10-01,36443.3611898191,702562.2,0.137328636098839
"95","Germany",2015-11-01,31868.5193172991,702322.29,0.1490578365752
"96","Germany",2015-12-01,33309.2632215075,704231.61,0.138604913084051
"97","Germany",2016-01-01,35349.8040238048,708676.52,0.119165237636579
"98","Germany",2016-02-01,34407.8729805996,709172.9,0.118585817465822
"99","Germany",2016-03-01,34743.6382935557,708037.58,0.127861885781151
"100","Germany",2016-04-01,34285.8727680453,712699.37,0.126001935247481
"101","Germany",2016-05-01,33815.8118538649,710090.9,0.131826284554132
"102","Germany",2016-06-01,33711.7606859247,715255.43,0.137379844756487
"103","Germany",2016-07-01,33948.4433119925,711455.89,0.134416387000502
"104","Germany",2016-08-01,34634.5538946722,715419.8,0.133051068780756
"105","Germany",2016-09-01,33765.1150937089,715572.21,0.133534711952842
"106","Germany",2016-10-01,35241.8558104078,715986.39,0.138193110818789
"107","Germany",2016-11-01,34774.5862122799,718279.67,0.137492257578525
"108","Germany",2016-12-01,35598.7941568096,715938.03,0.14631937720161
"109","Germany",2017-01-01,35227.1374219344,722883.33,0.156427728102354
"110","Germany",2017-02-01,33461.4535441419,726494.92,0.160063178872436
"111","Germany",2017-03-01,34001.4817585429,726401.15,0.166691714046279
"112","Germany",2017-04-01,35335.6538282142,728411.09,0.151370261135124
"113","Germany",2017-05-01,36297.7961990625,730028.56,0.14291406558488
"114","Germany",2017-06-01,34980.987525294,729498.45,0.136588222989692
"115","Germany",2017-07-01,34257.1056736403,731869.97,0.141559126610179
"116","Germany",2017-08-01,35190.7838976016,737865.77,0.145520576778658
"117","Germany",2017-09-01,34500.303401587,737069.36,0.145725069964587
"118","Germany",2017-10-01,32878.2936858721,734356.14,0.152129889290104
"119","Germany",2017-11-01,34147.7542116769,745021.87,0.155560414157101
"120","Germany",2017-12-01,33730.4795537914,743568.89,0.158970718999778
"121","Germany",2018-01-01,31204.8225252175,743683.94,0.178583457848188
"122","Germany",2018-02-01,34566.4455403236,739629.07,0.1605718808677
"123","Germany",2018-03-01,35045.1604915017,742568.8,0.160400382443819
"124","Germany",2018-04-01,33107.0974392052,742415.65,0.172490773643367
"125","Germany",2018-05-01,32629.9529059104,746311.84,0.181101135899464
"126","Germany",2018-06-01,34474.205572849,745749.31,0.17173619960314
"127","Germany",2018-07-01,33395.9600435255,742679.36,0.177088697066905
"128","Germany",2018-08-01,33980.0669940408,744268.6,0.181428869816958
"129","Germany",2018-09-01,32784.8697259423,745222.73,0.18769199249397
"130","Germany",2018-10-01,32524.9770097136,744957.52,0.193573749579282
"131","Germany",2018-11-01,32262.1656996749,744264.78,0.199629277283483
"132","Germany",2018-12-01,29241.4565265882,747560.3,0.193780601435027
"133","Germany",2019-01-01,33148.3265675115,747341.41,0.18451999700527
"134","Germany",2019-02-01,32731.3096333603,748938.96,0.184125067778367
"135","Germany",2019-03-01,30739.8094430723,751141.13,0.187010617745959
"136","Germany",2019-04-01,31175.1943662913,746006.41,0.186478568607393
"137","Germany",2019-05-01,31075.6191673133,748914.89,0.184402270501237
"138","Germany",2019-06-01,27534.8832126435,747049.8,0.197900127890587
"139","Germany",2019-07-01,30613.090826172,747236.14,0.195464873406533
"140","Germany",2019-08-01,28855.477855045,750436.94,0.191629373521539
"141","Germany",2019-09-01,29134.2775898714,748700.22,0.186357299850744
"142","France",2008-01-01,12782.5554185635,507245.63,0.417028579765368
"143","France",2008-02-01,12339.4919072601,508729.06,0.404021393657118
"144","France",2008-03-01,13127.2903659883,507236.31,0.401496313762017
"145","France",2008-04-01,13745.0026164826,509364.81,0.375522186028954
"146","France",2008-05-01,11899.0183393606,503541.75,0.483420282276973
"147","France",2008-06-01,13425.7396215484,503476.15,0.429361364366895
"148","France",2008-07-01,13835.0041866762,504778.71,0.446055265041863
"149","France",2008-08-01,13169.4801965911,503407.54,0.430190360033936
"150","France",2008-09-01,13005.7291331975,503153.45,0.401253439510904
"151","France",2008-10-01,13258.3915692413,500957.27,0.383832413331897
"152","France",2008-11-01,13085.9845586866,495172.14,0.341014339532193
"153","France",2008-12-01,13234.4302425343,493733.59,0.297340038780051
"154","France",2009-01-01,12561.0112035529,489858.64,0.280716852480037
"155","France",2009-02-01,13217.0862185717,488606.74,0.269284005738313
"156","France",2009-03-01,12585.0660796913,486953.02,0.251449404602078
"157","France",2009-04-01,12204.4473304633,487067.19,0.255402091261328
"158","France",2009-05-01,12296.8092518421,488072.32,0.269051227197228
"159","France",2009-06-01,12564.3513742311,488887.79,0.25992282115656
"160","France",2009-07-01,11737.5840315581,487390.85,0.257348686561686
"161","France",2009-08-01,12435.4925243676,489005.54,0.272283868119317
"162","France",2009-09-01,11764.2134391505,490129.31,0.262695340177888
"163","France",2009-10-01,12998.7064644122,490902.21,0.275819730510615
"164","France",2009-11-01,12256.1190095985,492891.91,0.29518791625854
"165","France",2009-12-01,12590.3500324016,492933.69,0.294006580069302
"166","France",2010-01-01,13348.999082672,493826.51,0.29309363379612
"167","France",2010-02-01,12520.7086757749,493176.2,0.29778330870094
"168","France",2010-03-01,13318.9861313647,495469.49,0.319213553021676
"169","France",2010-04-01,12056.5615465743,495548.62,0.323660372309914
"170","France",2010-05-01,13524.5633967402,497027.8,0.302312353795798
"171","France",2010-06-01,12639.2425421267,497518.48,0.326896075027466
"172","France",2010-07-01,12143.3225321207,499197.73,0.323201016043545
"173","France",2010-08-01,11830.4499773421,498871.54,0.321839666004153
"174","France",2010-09-01,13241.8798453054,500836.33,0.339811901819606
"175","France",2010-10-01,9702.03642603372,501053.92,0.326739898071182
"176","France",2010-11-01,12819.0893266899,503015.53,0.343692852687893
"177","France",2010-12-01,13065.702469889,505371.85,0.354649959762441
"178","France",2011-01-01,13227.1138557521,507774.3,0.384060810926952
"179","France",2011-02-01,12830.7630449443,509050.85,0.40716312001565
"180","France",2011-03-01,11692.5326705945,508397.35,0.414841676187456
"181","France",2011-04-01,11853.6944683691,506916.35,0.461271440671761
"182","France",2011-05-01,11474.4132186573,510863.38,0.408569936194689
"183","France",2011-06-01,12022.7756610087,508318.17,0.416023599128953
"184","France",2011-07-01,11908.8743468879,510143.48,0.413347099435066
"185","France",2011-08-01,11608.0608540331,509968.62,0.414345834506335
"186","France",2011-09-01,11876.6619514376,509570.79,0.428263460925024
"187","France",2011-10-01,11379.2727513188,510083.06,0.431866958871123
"188","France",2011-11-01,12596.1330100471,512728.68,0.456534925314856
"189","France",2011-12-01,10651.9365744806,511047.77,0.476604466062435
"190","France",2012-01-01,10698.3982459607,510853.86,0.514673893632986
"191","France",2012-02-01,13200.0535804109,512252.7,0.402845674939848
"192","France",2012-03-01,11071.2754306462,511999.14,0.511096271646177
"193","France",2012-04-01,12697.7648763738,512140.99,0.425949098903816
"194","France",2012-05-01,11653.149312427,510427.95,0.45430220412519
"195","France",2012-06-01,11873.0780779372,509832.87,0.40768604728028
"196","France",2012-07-01,12318.3975175359,510478.77,0.443712281089547
"197","France",2012-08-01,12043.8532781888,513028.91,0.46707598402173
"198","France",2012-09-01,11829.7857251727,511890.82,0.45667089726493
"199","France",2012-10-01,11092.9568027169,510882.43,0.469661063543656
"200","France",2012-11-01,11738.2979674691,511329.16,0.443952073614175
"201","France",2012-12-01,11039.4217205796,512184.01,0.461064182267887
"202","France",2013-01-01,11313.8727802054,510371.16,0.456683996269802
"203","France",2013-02-01,12142.5839058957,511291.87,0.434621990144632
"204","France",2013-03-01,12060.8089465409,512152.98,0.429751690059697
"205","France",2013-04-01,12187.210126289,514570.52,0.42764473935071
"206","France",2013-05-01,12546.8029329459,515272.82,0.410839096271122
"207","France",2013-06-01,11479.0321709164,514505.35,0.40975361091679
"208","France",2013-07-01,11890.4539624515,514155.77,0.426088593220902
"209","France",2013-08-01,11852.5456628368,514940.19,0.405782509244398
"210","France",2013-09-01,10856.4058176457,515272.84,0.403664891147066
"211","France",2013-10-01,11015.1145287629,515818.22,0.424203087904153
"212","France",2013-11-01,11957.0270504419,518281.18,0.395127576741952
"213","France",2013-12-01,11081.5685779414,517399.2,0.401085867700092
"214","France",2014-01-01,10016.0992227602,516170.67,0.45869930632466
"215","France",2014-02-01,10424.9075031387,518299.77,0.446543766475767
"216","France",2014-03-01,10792.4122851734,518158.56,0.3920296898828
"217","France",2014-04-01,10598.6885397667,518644.52,0.429943188962111
"218","France",2014-05-01,10472.5834402688,517001.05,0.422312852002899
"219","France",2014-06-01,11862.8814856,519600.63,0.41223296418699
"220","France",2014-07-01,10509.0479969832,521248.38,0.416401753924196
"221","France",2014-08-01,11073.0900113122,520151.59,0.420321473733955
"222","France",2014-09-01,11250.72920206,521350.13,0.412084074632044
"223","France",2014-10-01,10876.7409956054,520550.77,0.391751503794116
"224","France",2014-11-01,10387.295435532,520095.4,0.4057344641051
"225","France",2014-12-01,11334.4379084474,523625.53,0.374051652157991
"226","France",2015-01-01,11345.2111103014,523375.88,0.310375145957123
"227","France",2015-02-01,11135.7007593921,524165.81,0.289955079709149
"228","France",2015-03-01,11681.2832791296,523732.31,0.348325799646594
"229","France",2015-04-01,10928.9198992224,522518.1,0.341950393997018
"230","France",2015-05-01,11015.7899445486,523952.1,0.347455052237349
"231","France",2015-06-01,11197.8626076578,524038.51,0.339381722012701
"232","France",2015-07-01,10856.8706771697,524092.96,0.322547298276623
"233","France",2015-08-01,10715.4396965452,526011.56,0.304455245352055
"234","France",2015-09-01,10943.0652357566,527180.59,0.320881378899724
"235","France",2015-10-01,11459.630424063,527584.26,0.284481837889904
"236","France",2015-11-01,10155.2294294394,525828.89,0.28354715056132
"237","France",2015-12-01,9911.49720351401,527274.55,0.307803851022659
"238","France",2016-01-01,10436.2777835143,530701.95,0.232346364685101
"239","France",2016-02-01,11028.9069439696,530239.06,0.240109375194266
"240","France",2016-03-01,11279.696307147,529751.69,0.223011702209502
"241","France",2016-04-01,11964.1018897197,530040.75,0.240284851216048
"242","France",2016-05-01,10544.9040763949,528108.98,0.258330972033383
"243","France",2016-06-01,10813.4878879655,527775.37,0.25794060085378
"244","France",2016-07-01,11653.4058349776,528492.43,0.272556982752079
"245","France",2016-08-01,11051.9004313089,530838.57,0.265673550607668
"246","France",2016-09-01,11372.15193847,530173.4,0.255163763533877
"247","France",2016-10-01,12126.4422855025,530576.17,0.269395539131426
"248","France",2016-11-01,11288.5661236762,534241.93,0.262678714165179
"249","France",2016-12-01,12211.9098814752,534592.9,0.295586065950276
"250","France",2017-01-01,12387.0165563173,536501.62,0.300961166408825
"251","France",2017-02-01,10976.7757756237,536967.22,0.338245666393369
"252","France",2017-03-01,10408.2856139829,539059.97,0.325221885736558
"253","France",2017-04-01,11447.1293519236,539517.12,0.285589901922957
"254","France",2017-05-01,12210.7870978853,541966.46,0.272801442552085
"255","France",2017-06-01,11777.6277354884,541853.03,0.276990773534602
"256","France",2017-07-01,11268.4863567771,543416.81,0.266340119492214
"257","France",2017-08-01,11765.1162586635,544485.97,0.279763132531871
"258","France",2017-09-01,11888.3977162725,546346.03,0.274306546294353
"259","France",2017-10-01,11512.4701489177,547382.58,0.29197786124833
"260","France",2017-11-01,12095.6932721332,548505.26,0.314784507263427
"261","France",2017-12-01,11957.660099174,551131.06,0.311964484017608
"262","France",2018-01-01,10134.7841427339,548167.1,0.37987931096635
"263","France",2018-02-01,12752.131117369,550852.75,0.314605271307398
"264","France",2018-03-01,11007.8183995217,551943.45,0.310051291095375
"265","France",2018-04-01,10507.2662947235,550998.5,0.349773145732919
"266","France",2018-05-01,10526.9532202071,550303.45,0.346040772963289
"267","France",2018-06-01,12218.2156571589,552223.65,0.363891872688197
"268","France",2018-07-01,10947.7306290586,552308.24,0.350810232206637
"269","France",2018-08-01,12118.8272310052,553274.63,0.358299171314467
"270","France",2018-09-01,10746.0084301293,552617.62,0.374279081221582
"271","France",2018-10-01,11184.8873470339,555127.11,0.392516495567875
"272","France",2018-11-01,11254.7807252039,554857.94,0.382476800382557
"273","France",2018-12-01,10273.086963024,556498.75,0.359013846271581
"274","France",2019-01-01,11282.3296852944,557463.57,0.364507524313163
"275","France",2019-02-01,10730.2637559961,557846.33,0.385635971198104
"276","France",2019-03-01,10642.0691179915,556918.61,0.387046420609382
"277","France",2019-04-01,11240.3832917511,558085.37,0.367542960334547
"278","France",2019-05-01,11554.5107390679,560994.81,0.376755412424756
"279","France",2019-06-01,10651.1751470124,559185.52,0.350100278099144
"280","France",2019-07-01,11007.0335643797,560449.88,0.366308978015516
"281","France",2019-08-01,10874.721092051,560508.98,0.361604116816539
"282","France",2019-09-01,10745.4974092894,561723.74,0.37206928710141
"283","Italy",2008-01-01,15528.4590060483,425970.54,0.305694191492743
"284","Italy",2008-02-01,15580.5658360142,425671.96,0.315575278857673
"285","Italy",2008-03-01,15037.9080523094,426273.8,0.319871231106727
"286","Italy",2008-04-01,16484.3735085334,424715.99,0.313033647833744
"287","Italy",2008-05-01,15621.691591039,420074.66,0.330836182895355
"288","Italy",2008-06-01,16167.5587981151,421637.45,0.340598984010706
"289","Italy",2008-07-01,15402.6593539264,419719,0.360098135048904
"290","Italy",2008-08-01,15606.3428166438,416778.94,0.336745735663822
"291","Italy",2008-09-01,15507.7738580316,414871.36,0.318257453913248
"292","Italy",2008-10-01,14769.8064346312,411119.01,0.300493313989051
"293","Italy",2008-11-01,14732.1995155809,406384.67,0.277475120613295
"294","Italy",2008-12-01,14187.4408175405,402948.22,0.249889610045191
"295","Italy",2009-01-01,13727.9134642433,398841.51,0.216037878916269
"296","Italy",2009-02-01,14364.5460823439,395896.6,0.226797916041506
"297","Italy",2009-03-01,13517.9416434041,391606.49,0.207989609517245
"298","Italy",2009-04-01,13444.6698802731,392907.94,0.227666358711528
"299","Italy",2009-05-01,13788.0265401854,395383.05,0.214605482939145
"300","Italy",2009-06-01,13268.0365227382,394314.71,0.222950652544997
"301","Italy",2009-07-01,13980.1481415882,396639.84,0.213211895205446
"302","Italy",2009-08-01,12985.4673300326,395124.97,0.222877998937331
"303","Italy",2009-09-01,13500.117988914,396517.49,0.220242736793259
"304","Italy",2009-10-01,14497.6388530592,398052.59,0.227081287066514
"305","Italy",2009-11-01,13642.1807876242,398000.25,0.228226151681914
"306","Italy",2009-12-01,13791.2290475783,395943.16,0.252197191872563
"307","Italy",2010-01-01,14377.8432045778,398848.02,0.249763450841891
"308","Italy",2010-02-01,14249.4572230093,397756.58,0.225860684244707
"309","Italy",2010-03-01,14906.699842854,399217.6,0.263357098846725
"310","Italy",2010-04-01,14362.3547836174,400367.03,0.255442342924909
"311","Italy",2010-05-01,14108.4600311167,401131.33,0.272458088020968
"312","Italy",2010-06-01,14422.651290304,403154.94,0.272774612168545
"313","Italy",2010-07-01,14080.1349340496,402326.16,0.262504665455184
"314","Italy",2010-08-01,14344.5717864998,405933.78,0.267957760410179
"315","Italy",2010-09-01,14035.3019658696,402223.86,0.281599567714906
"316","Italy",2010-10-01,14301.0955301093,404003.33,0.266019089751115
"317","Italy",2010-11-01,15042.3758211232,406103.5,0.282525090599561
"318","Italy",2010-12-01,14428.5430715835,407575.18,0.276488556978583
"319","Italy",2011-01-01,14155.7515752197,405710.53,0.300258778182762
"320","Italy",2011-02-01,13881.3097031622,408156.81,0.340114710865892
"321","Italy",2011-03-01,14718.0280853231,407965.76,0.32733000995908
"322","Italy",2011-04-01,14190.5436239163,409642.7,0.356667505672821
"323","Italy",2011-05-01,13955.7894994092,407135.25,0.3059705849261
"324","Italy",2011-06-01,13780.7864384868,406517.35,0.307800436601336
"325","Italy",2011-07-01,13913.0013628215,406803.33,0.325811478605576
"326","Italy",2011-08-01,14288.3820327518,406468.31,0.318168561831802
"327","Italy",2011-09-01,14679.1428641969,404271.16,0.333557671890564
"328","Italy",2011-10-01,13611.7313425008,403323.5,0.336217731636186
"329","Italy",2011-11-01,14002.3393585731,401637.82,0.346398264541329
"330","Italy",2011-12-01,12764.8784954412,401824.97,0.351719388807676
"331","Italy",2012-01-01,14047.2380299054,398224.87,0.354568053372006
"332","Italy",2012-02-01,15360.8218457194,398063.71,0.329736599465581
"333","Italy",2012-03-01,12677.1376246818,396895.12,0.387755239052982
"334","Italy",2012-04-01,13385.8140555931,395218.48,0.354390011852769
"335","Italy",2012-05-01,13576.9224761651,395902.88,0.355004126606016
"336","Italy",2012-06-01,13785.0417698724,392832.25,0.341763853877691
"337","Italy",2012-07-01,13205.1769296091,393090.53,0.341021369297748
"338","Italy",2012-08-01,13749.7487383628,392424.74,0.353614035172741
"339","Italy",2012-09-01,11666.7608846827,391952.32,0.318447289408818
"340","Italy",2012-10-01,12716.1160224427,389800.99,0.368258298568391
"341","Italy",2012-11-01,12121.7788732167,388973.71,0.371106702315684
"342","Italy",2012-12-01,13734.2949437118,389270.8,0.410520961086942
"343","Italy",2013-01-01,12552.8887811836,386973.09,0.356076410817994
"344","Italy",2013-02-01,13041.5154053185,385545.55,0.356672922582511
"345","Italy",2013-03-01,12313.5570778377,385638.56,0.311371171952076
"346","Italy",2013-04-01,12930.2640377223,384823.62,0.323075864552286
"347","Italy",2013-05-01,12707.3326807709,386552.01,0.349135440377942
"348","Italy",2013-06-01,12133.6522869801,386848.18,0.333938082211462
"349","Italy",2013-07-01,12602.7513871559,387771.82,0.356003822349563
"350","Italy",2013-08-01,12236.6155781217,385929.9,0.346366162790311
"351","Italy",2013-09-01,11684.5848455106,386646.08,0.320666364114449
"352","Italy",2013-10-01,12367.9168482355,386709.69,0.344449492159334
"353","Italy",2013-11-01,11793.1580161784,386145.22,0.33407054440388
"354","Italy",2013-12-01,12225.459841515,385179.88,0.343844534509022
"355","Italy",2014-01-01,11620.5530763334,387001.84,0.350356763538138
"356","Italy",2014-02-01,11174.5920904604,386395.89,0.368043560805031
"357","Italy",2014-03-01,11732.6946923099,385948.67,0.350400783285209
"358","Italy",2014-04-01,11138.2436424908,386390.32,0.352446311172701
"359","Italy",2014-05-01,11336.7936096113,384361.5,0.32403450218581
"360","Italy",2014-06-01,11933.5567698996,388524.08,0.333173501809335
"361","Italy",2014-07-01,11707.5286666256,386764.54,0.338133858829253
"362","Italy",2014-08-01,11255.468172763,387413.91,0.341102770423675
"363","Italy",2014-09-01,11463.0508836326,386739.95,0.312480790146822
"364","Italy",2014-10-01,12346.1340044755,386042.68,0.329966857000977
"365","Italy",2014-11-01,10541.0808813304,384564.36,0.300023348942962
"366","Italy",2014-12-01,10996.5885598778,387884.95,0.303475655443209
"367","Italy",2015-01-01,12187.5013220089,386388.02,0.288818156425114
"368","Italy",2015-02-01,12379.8441217038,387509.62,0.285494192077458
"369","Italy",2015-03-01,12135.5121757903,387011.46,0.280718450916605
"370","Italy",2015-04-01,11849.6628136134,388457.28,0.273826926981236
"371","Italy",2015-05-01,12032.448500509,388982.14,0.296411775290692
"372","Italy",2015-06-01,11579.263343006,388100.48,0.27290089701907
"373","Italy",2015-07-01,11948.5048813141,389694.99,0.255473267698356
"374","Italy",2015-08-01,11981.4262582916,388567.78,0.246161397880412
"375","Italy",2015-09-01,12852.205967863,389943.53,0.263708552779375
"376","Italy",2015-10-01,11579.5804706063,390955.06,0.237539485578756
"377","Italy",2015-11-01,11895.5181791291,392555.65,0.248959198123116
"378","Italy",2015-12-01,11898.1249581701,390411.49,0.235992728400004
"379","Italy",2016-01-01,11525.0952025136,393537.94,0.198307215157443
"380","Italy",2016-02-01,11478.3394359575,391572.3,0.207918733654773
"381","Italy",2016-03-01,11871.2318811298,392852.36,0.211656967842442
"382","Italy",2016-04-01,12096.2692618495,394072.32,0.210207861393202
"383","Italy",2016-05-01,12344.5464531437,393457.95,0.22201554955572
"384","Italy",2016-06-01,12012.096256885,392494.83,0.230561960665289
"385","Italy",2016-07-01,11415.5997620065,394940.04,0.216971428371586
"386","Italy",2016-08-01,11386.2936465671,396416.07,0.221854265421383
"387","Italy",2016-09-01,12214.5469114514,394976.8,0.225727018979412
"388","Italy",2016-10-01,12358.3454501604,395713.29,0.224937531895168
"389","Italy",2016-11-01,12406.5234376623,395775.91,0.223110553428506
"390","Italy",2016-12-01,12098.3117745716,398392.41,0.224420453366449
"391","Italy",2017-01-01,13176.2429370989,397481.7,0.24036746942596
"392","Italy",2017-02-01,12314.2681225819,399823.18,0.291961076637424
"393","Italy",2017-03-01,11414.8296374006,399848.43,0.256595082220456
"394","Italy",2017-04-01,11963.8897515761,400693.12,0.262476963023104
"395","Italy",2017-05-01,11944.0345006578,399328.34,0.220512335424189
"396","Italy",2017-06-01,12224.5256573143,401239.43,0.203519628047537
"397","Italy",2017-07-01,12598.5980271139,401108.04,0.24401779790625
"398","Italy",2017-08-01,12668.6977111068,403601.76,0.237463942835663
"399","Italy",2017-09-01,11576.3761166851,401085.3,0.242337857053557
"400","Italy",2017-10-01,11975.1871395798,401698.41,0.24624765320226
"401","Italy",2017-11-01,12861.5512273912,403269.91,0.250988157486316
"402","Italy",2017-12-01,12541.1223421745,407056.28,0.260307683924927
"403","Italy",2018-01-01,11576.9701692003,404009.05,0.302731298462831
"404","Italy",2018-02-01,12232.7287122724,403817.4,0.249789254319023
"405","Italy",2018-03-01,13354.612119523,405023.76,0.26049868075025
"406","Italy",2018-04-01,11830.9192591741,403880.67,0.271980765885725
"407","Italy",2018-05-01,11808.3798337206,404797.45,0.294852017826827
"408","Italy",2018-06-01,11789.1244933823,403606.28,0.289442279805641
"409","Italy",2018-07-01,10840.9063754389,402379.74,0.265073610767475
"410","Italy",2018-08-01,12459.8843005066,404549.51,0.296775345364429
"411","Italy",2018-09-01,12249.9511629571,404105.65,0.298954185241825
"412","Italy",2018-10-01,12276.4000955954,404292.59,0.330828373819209
"413","Italy",2018-11-01,11299.3841459612,403846.96,0.286740850136138
"414","Italy",2018-12-01,11629.1767828382,404476.65,0.280263944061249
"415","Italy",2019-01-01,12889.1293769357,405032.95,0.291661635686052
"416","Italy",2019-02-01,10996.7931058787,405214.77,0.282060617133629
"417","Italy",2019-03-01,11741.8037562194,405175.88,0.291029014994587
"418","Italy",2019-04-01,12212.6434898073,404639.59,0.291580089021988
"419","Italy",2019-05-01,11890.7057015519,405726.12,0.280120053851077
"420","Italy",2019-06-01,11960.5351046515,406342.79,0.286025180458183
"421","Italy",2019-07-01,11906.8476051404,405325,0.292329496622105
"422","Italy",2019-08-01,11525.7900466511,407090.9,0.299209114311317
"423","Italy",2019-09-01,11711.3548606553,404976.89,0.299101185795039
"424","UK",2008-01-01,17447.2823120027,417595.92,0.23898473903049
"425","UK",2008-02-01,18150.3107158261,418487.62,0.241373428256405
"426","UK",2008-03-01,19093.7885456862,415937.06,0.236159826582666
"427","UK",2008-04-01,21619.8735331441,417790.39,0.223559733401309
"428","UK",2008-05-01,18585.9183740929,414970.33,0.271350923842131
"429","UK",2008-06-01,19370.7984786798,412314.58,0.273922455440467
"430","UK",2008-07-01,19535.9999021385,409388.06,0.287972754362332
"431","UK",2008-08-01,17815.2509520167,409547.17,0.271183326948538
"432","UK",2008-09-01,18961.1791183619,406670.67,0.264105410020783
"433","UK",2008-10-01,19006.0455490197,404050.12,0.228733288735848
"434","UK",2008-11-01,18217.5530677263,398984.43,0.200638590076752
"435","UK",2008-12-01,18167.9732426061,397258.25,0.18428313046373
"436","UK",2009-01-01,18428.7809023708,393813.21,0.164824059768241
"437","UK",2009-02-01,17418.0285057834,393216.23,0.160146622565041
"438","UK",2009-03-01,16898.1347327197,392290.97,0.151215387732791
"439","UK",2009-04-01,16814.226870187,393377.81,0.145843550231514
"440","UK",2009-05-01,16491.5453474627,391107.01,0.133126377828933
"441","UK",2009-06-01,16038.6133576836,391965.17,0.140457890391661
"442","UK",2009-07-01,16451.9741382414,393726.02,0.130732168827149
"443","UK",2009-08-01,16467.7077005475,391264.03,0.14134105534739
"444","UK",2009-09-01,16463.6649243855,392295.44,0.132848108092117
"445","UK",2009-10-01,19761.6051199631,392953.12,0.188352028222895
"446","UK",2009-11-01,16369.6220895738,393902.54,0.186195789176547
"447","UK",2009-12-01,17283.8046156188,393962.34,0.18204451944186
"448","UK",2010-01-01,17592.6682408162,394007.2,0.186761655575782
"449","UK",2010-02-01,17341.1766126889,395721.2,0.185196437345269
"450","UK",2010-03-01,17011.8351661941,398613,0.196463107388752
"451","UK",2010-04-01,17600.1016731911,399423.36,0.198814036351709
"452","UK",2010-05-01,18139.3880168487,400497.85,0.197738982455629
"453","UK",2010-06-01,18117.7681145332,400328.09,0.189023931015765
"454","UK",2010-07-01,17504.8317838047,401529.64,0.195165946248971
"455","UK",2010-08-01,17443.1202071138,403548.39,0.19880146218166
"456","UK",2010-09-01,17353.6090504747,403131.48,0.19251857846725
"457","UK",2010-10-01,17702.6406115426,402460.88,0.19752500126217
"458","UK",2010-11-01,18137.5827797512,402716.32,0.213232615901053
"459","UK",2010-12-01,19398.3797944655,403797.29,0.230032168473781
"460","UK",2011-01-01,17225.0079790934,405812.66,0.256378574376458
"461","UK",2011-02-01,15542.1258938628,405022.59,0.261653396154233
"462","UK",2011-03-01,16901.7895317585,405749.65,0.27515500747894
"463","UK",2011-04-01,15687.9434914288,404714.28,0.307826535899686
"464","UK",2011-05-01,15625.7931773723,406093.51,0.26889106940346
"465","UK",2011-06-01,16301.2822782594,406987.01,0.232756379296118
"466","UK",2011-07-01,16227.7051249975,406939.39,0.249564752955305
"467","UK",2011-08-01,16794.9113199732,407188.5,0.245613484287532
"468","UK",2011-09-01,16433.0134338472,407443.62,0.271171946048671
"469","UK",2011-10-01,16101.5366480262,407233.75,0.28272275127486
"470","UK",2011-11-01,16190.6959652535,407528.04,0.298769012800846
"471","UK",2011-12-01,16426.1322959679,409080.71,0.286627593269002
"472","UK",2012-01-01,15794.6842262644,410399.79,0.302322084284273
"473","UK",2012-02-01,17377.4930790358,411308.56,0.287252840064653
"474","UK",2012-03-01,16091.6082939054,410010.35,0.324480693136283
"475","UK",2012-04-01,18442.6724810592,410061.07,0.298414545243966
"476","UK",2012-05-01,17422.0164924111,411249.24,0.289945973832449
"477","UK",2012-06-01,16837.261032111,409436.99,0.257391221728998
"478","UK",2012-07-01,17269.7163428303,415527.16,0.301346375535163
"479","UK",2012-08-01,16173.3532659702,416715.81,0.317375088611333
"480","UK",2012-09-01,16411.7471428936,413464.44,0.321352086320712
"481","UK",2012-10-01,17057.3981503528,412983.54,0.255905968545066
"482","UK",2012-11-01,16368.0641856764,414482.33,0.277233329860341
"483","UK",2012-12-01,16290.374160282,416326.04,0.280753333783734
"484","UK",2013-01-01,16186.2951560322,415702.93,0.261992524011412
"485","UK",2013-02-01,16666.6546404017,417117.76,0.278117943501215
"486","UK",2013-03-01,17947.4418743717,418988.41,0.254493183076659
"487","UK",2013-04-01,17419.2066694592,418079.6,0.247059232691982
"488","UK",2013-05-01,17151.5938975655,419344.51,0.259317427417464
"489","UK",2013-06-01,16760.6341809667,421094.49,0.266041882014478
"490","UK",2013-07-01,16171.4782055367,422274.28,0.282725067510822
"491","UK",2013-08-01,16401.7809913811,422648.4,0.281358936035561
"492","UK",2013-09-01,16179.3696592902,425498.42,0.279269076813716
"493","UK",2013-10-01,15332.3331444667,425711.79,0.273182852542464
"494","UK",2013-11-01,16016.0634999297,425112.87,0.266882621218383
"495","UK",2013-12-01,14754.4951551666,426341.03,0.267541872246611
"496","UK",2014-01-01,15257.611716195,427096.25,0.288949751388584
"497","UK",2014-02-01,14679.9922530305,429102.85,0.289205801090241
"498","UK",2014-03-01,14625.2967526458,429382.8,0.279808135495533
"499","UK",2014-04-01,14908.6076317544,430784.12,0.276861684851093
"500","UK",2014-05-01,14829.7846800992,430972.08,0.270657058147201
"501","UK",2014-06-01,14741.6424498648,432255.1,0.297915351861256
"502","UK",2014-07-01,14620.3810725524,433355.75,0.294455136830785
"503","UK",2014-08-01,14550.6609792754,433402.93,0.293017303217693
"504","UK",2014-09-01,15064.098987735,434705.52,0.280328422199169
"505","UK",2014-10-01,14702.2874198093,435329.95,0.267330815228444
"506","UK",2014-11-01,14590.7814916889,436300.44,0.258921914570598
"507","UK",2014-12-01,15307.1330171953,437113.31,0.256903686316279
"508","UK",2015-01-01,15080.011706487,436998.78,0.232022587518565
"509","UK",2015-02-01,14989.7594181471,438430.64,0.235343578013548
"510","UK",2015-03-01,14862.7169117438,440207.98,0.260282112064022
"511","UK",2015-04-01,14186.1531684059,440994.81,0.268029260619886
"512","UK",2015-05-01,14524.8283130501,441527.81,0.262705973724454
"513","UK",2015-06-01,14139.419667613,442496.98,0.259074776359116
"514","UK",2015-07-01,14234.3096414768,441838.41,0.294673764519084
"515","UK",2015-08-01,14718.2853648126,443714.71,0.235991913826912
"516","UK",2015-09-01,14179.355561801,445163.78,0.219331946376824
"517","UK",2015-10-01,14998.819561116,447398.87,0.226884806196476
"518","UK",2015-11-01,13213.9076633242,446708.31,0.254860649481234
"519","UK",2015-12-01,12338.7543126778,446555.93,0.243896879229885
"520","UK",2016-01-01,13337.7516296394,447792.46,0.197582145570329
"521","UK",2016-02-01,13888.0390402542,447040.83,0.178981032403205
"522","UK",2016-03-01,13632.3302558802,448060.01,0.180474407938993
"523","UK",2016-04-01,14116.7503176705,451261.23,0.170190699296176
"524","UK",2016-05-01,13109.9608087019,449529.25,0.195475087978218
"525","UK",2016-06-01,13901.0468632032,449230.22,0.193080479879012
"526","UK",2016-07-01,13690.0233425997,450550.82,0.177953036757313
"527","UK",2016-08-01,13150.1672197346,452531.4,0.171039584635407
"528","UK",2016-09-01,12973.4802444687,453023.98,0.177642862301199
"529","UK",2016-10-01,13936.8330953175,452058.78,0.190247478673228
"530","UK",2016-11-01,13932.3650733173,454933.49,0.196776847173796
"531","UK",2016-12-01,13246.7063139882,457923.43,0.23264991869432
"532","UK",2017-01-01,14135.9123144809,457839.95,0.230954721423912
"533","UK",2017-02-01,13105.0208699201,457741.67,0.242907853482392
"534","UK",2017-03-01,12024.7500710438,457201.88,0.226467886631377
"535","UK",2017-04-01,12922.3781570308,458252.2,0.231706676272747
"536","UK",2017-05-01,12907.1712053711,458836.65,0.202057323027532
"537","UK",2017-06-01,13141.0638433377,459145.85,0.179177661885754
"538","UK",2017-07-01,12948.170545238,459279.91,0.181745261101893
"539","UK",2017-08-01,13161.2124997234,459937.54,0.179954325605726
"540","UK",2017-09-01,13638.8477175327,461702.65,0.197458463767292
"541","UK",2017-10-01,12544.0994584054,462148.34,0.219357540123759
"542","UK",2017-11-01,13461.245710648,462004.56,0.220411606402117
"543","UK",2017-12-01,13795.4815313096,462280.3,0.221133404205442
"544","UK",2018-01-01,12785.8211707926,461758.38,0.247537800342553
"545","UK",2018-02-01,13674.9138106482,462540.67,0.216116536041624
"546","UK",2018-03-01,13989.2256116615,462958.85,0.204854364173084
"547","UK",2018-04-01,13409.5274728822,463861.24,0.240039688042903
"548","UK",2018-05-01,12308.0831771915,464543.64,0.271367495463922
"549","UK",2018-06-01,13009.1341248422,466159.52,0.286843063621848
"550","UK",2018-07-01,13218.6120939504,467130.27,0.274303266025523
"551","UK",2018-08-01,13326.891136741,467957.48,0.287528458753131
"552","UK",2018-09-01,13038.516508828,467664.85,0.286694324930078
"553","UK",2018-10-01,12874.3605752024,468358.18,0.287479534608673
"554","UK",2018-11-01,12900.7777194177,468654.2,0.280678847837471
"555","UK",2018-12-01,12784.0593273357,468743.52,0.254532237574446
"556","UK",2019-01-01,13379.4229547357,470026.5,0.261940294876334
"557","UK",2019-02-01,12059.708763046,471418.65,0.282539563094759
"558","UK",2019-03-01,11525.4311961047,473323.65,0.275022449752293
"559","UK",2019-04-01,12701.4033064305,469619.84,0.276194444467133
"560","UK",2019-05-01,12972.3536719408,471382.06,0.268264100815195
"561","UK",2019-06-01,12687.5702864766,472234.2,0.236766138122944
"562","UK",2019-07-01,12764.0688449646,472970.36,0.258725501899537
"563","UK",2019-08-01,12274.5974444149,472950.75,0.252029348858898
"564","UK",2019-09-01,12180.8645722537,474287.59,0.271237278159909
"565","USA",2008-01-01,0.000209089844708851,15818860.4959515,0.26030631536249
"566","USA",2008-02-01,0.000215708244377285,15589109.892338,0.268086799174635
"567","USA",2008-03-01,0.000211770649428799,15606710.8145833,0.294776256205086
"568","USA",2008-04-01,0.000213381466616791,15659249.962705,0.317970676013218
"569","USA",2008-05-01,0.000211547266251688,15691792.4284386,0.351371471516538
"570","USA",2008-06-01,0.000208430134299028,15905769.0147754,0.369462945499638
"571","USA",2008-07-01,0.000207114478864668,15780395.3157782,0.371020110025866
"572","USA",2008-08-01,0.000202000053992961,15705598.608759,0.331260675780032
"573","USA",2008-09-01,0.000197959916571912,15515370.8882828,0.298632928420334
"574","USA",2008-10-01,0.000205913789241065,15399393.4959948,0.252031593748197
"575","USA",2008-11-01,0.000203539395877711,15421035.3148481,0.213264744835408
"576","USA",2008-12-01,0.000202257958668672,15163877.3635782,0.188864639172968
"577","USA",2009-01-01,0.000202842910823158,15195460.6808221,0.187453430097968
"578","USA",2009-02-01,0.000196242883259251,15147988.4900831,0.180947197560301
"579","USA",2009-03-01,0.000198244841870621,15124606.7790707,0.194411051077457
"580","USA",2009-04-01,0.000199885906756313,15122210.5628791,0.193879856633596
"581","USA",2009-05-01,0.000195124351044824,15136687.4942849,0.21053906761173
"582","USA",2009-06-01,0.000195495246543891,15143596.4741457,0.230099431828381
"583","USA",2009-07-01,0.000192074759347177,15128521.0574584,0.221191442237271
"584","USA",2009-08-01,0.000195757931302824,15220650.8860897,0.225901290300652
"585","USA",2009-09-01,0.000195704669700617,15218728.0281391,0.22536204245811
"586","USA",2009-10-01,0.000197698358255515,15423869.3809196,0.230797380750723
"587","USA",2009-11-01,0.00019355829720629,15360585.0680106,0.234440250954806
"588","USA",2009-12-01,0.000203527022211916,15283938.119418,0.225657937833666
"589","USA",2010-01-01,0.000202616713659832,15361163.3851879,0.228983717179297
"590","USA",2010-02-01,0.000204650622656531,15393878.9440123,0.228914265254182
"591","USA",2010-03-01,0.000201489311137419,15490385.2743131,0.24207102904162
"592","USA",2010-04-01,0.000200633315016778,15553424.3757341,0.250530072858561
"593","USA",2010-05-01,0.000205437173213336,15520403.9217954,0.238775193034063
"594","USA",2010-06-01,0.000207835944616793,15598227.4982674,0.239291563091383
"595","USA",2010-07-01,0.000205789048157533,15670594.5530419,0.238619164584087
"596","USA",2010-08-01,0.000207656118644532,15640529.254001,0.237850121747381
"597","USA",2010-09-01,0.00020675058011824,15704926.5269135,0.238111330953977
"598","USA",2010-10-01,0.000198655653134575,15748149.9928682,0.246299358219975
"599","USA",2010-11-01,0.000202231235571123,15701525.3522104,0.242613141085153
"600","USA",2010-12-01,0.00021294982034779,15802378.2392158,0.242583085520463
"601","USA",2011-01-01,0.000206111151859942,15647821.6067129,0.241198346380799
"602","USA",2011-02-01,0.000202043690618603,15638379.4269421,0.25000008044895
"603","USA",2011-03-01,0.000204668362397784,15852088.2435614,0.280610610164749
"604","USA",2011-04-01,0.000204253191016578,15889570.5406212,0.301686538797771
"605","USA",2011-05-01,0.00020284587995044,15818467.3608134,0.294819185015766
"606","USA",2011-06-01,0.000204871875746463,15767422.6255063,0.288974393639622
"607","USA",2011-07-01,0.000205669334608599,15813430.5000093,0.284061288312348
"608","USA",2011-08-01,0.000206632808460349,15888678.591698,0.271345377157517
"609","USA",2011-09-01,0.00020281501785839,15760211.8450895,0.275679105032247
"610","USA",2011-10-01,0.000200613265033516,16032903.9504289,0.275527041280426
"611","USA",2011-11-01,0.000201776438030013,15992373.5753446,0.280981940209796
"612","USA",2011-12-01,0.000198258689841741,15987326.8947906,0.265958038771451
"613","USA",2012-01-01,0.000192351749561252,16028637.5143413,0.262156290094556
"614","USA",2012-02-01,0.000198733624005853,16267828.8982952,0.268045886614662
"615","USA",2012-03-01,0.00018811917220883,16091716.2880219,0.289217984182584
"616","USA",2012-04-01,0.000196836497830372,16181996.5234745,0.285665408580411
"617","USA",2012-05-01,0.00020370944910681,16222314.2025007,0.274944537161496
"618","USA",2012-06-01,0.000200682969293157,16192087.3559491,0.255292554488928
"619","USA",2012-07-01,0.000203228174232358,16262842.7215102,0.253869267457709
"620","USA",2012-08-01,0.000202137094803723,16177105.7720154,0.268501772246001
"621","USA",2012-09-01,0.000197595267856171,16222063.1231718,0.274124859930012
"622","USA",2012-10-01,0.000200833819330404,16156829.9754542,0.265756340311271
"623","USA",2012-11-01,0.000201485222676017,16234448.5343801,0.251481453500401
"624","USA",2012-12-01,0.000194442100650726,16326213.090885,0.250116380718814
"625","USA",2013-01-01,0.000199223723585708,16454021.6255411,0.251690966158655
"626","USA",2013-02-01,0.000200208770244281,16316554.8390858,0.252491781355265
"627","USA",2013-03-01,0.000205193945364973,16378558.6027692,0.259816014210759
"628","USA",2013-04-01,0.000205346878472668,16390229.2564862,0.274462351075573
"629","USA",2013-05-01,0.00020380177110412,16360854.2453608,0.286012066245765
"630","USA",2013-06-01,0.000200425955119283,16458674.1739883,0.283579752529444
"631","USA",2013-07-01,0.000202469554447348,16491012.5833491,0.292113058518225
"632","USA",2013-08-01,0.000200512492761014,16554460.0032225,0.290799869524713
"633","USA",2013-09-01,0.000204728854980023,16549819.9656093,0.292775702051288
"634","USA",2013-10-01,0.000204774434540864,16628091.8779734,0.279232116760228
"635","USA",2013-11-01,0.000210790722933392,16701290.1848405,0.25518622528683
"636","USA",2013-12-01,0.000210492704837093,16661820.8742785,0.248453430296208
"637","USA",2014-01-01,0.00021287466119664,16562723.6398318,0.249675152105339
"638","USA",2014-02-01,0.000210877631363992,16641757.0699517,0.267021783502805
"639","USA",2014-03-01,0.000208333589996646,16645446.6464233,0.277278844705056
"640","USA",2014-04-01,0.000206479266047674,16773682.0166914,0.286117719237562
"641","USA",2014-05-01,0.000204315209427222,16837707.480737,0.289082915008614
"642","USA",2014-06-01,0.000202149423096781,16913372.9955297,0.296458123002828
"643","USA",2014-07-01,0.000201296289299987,16999973.2082365,0.290968227092953
"644","USA",2014-08-01,0.000201376027187969,17102329.4323778,0.273923929200648
"645","USA",2014-09-01,0.000205194613472438,17039336.6830773,0.271383773914771
"646","USA",2014-10-01,0.000206167070557029,17144323.5953126,0.255749352425153
"647","USA",2014-11-01,0.000212309946557926,17153625.8142335,0.229942186047969
"648","USA",2014-12-01,0.000204545556406418,17131456.9266968,0.204956464336952
"649","USA",2015-01-01,0.000206471906309052,17256376.9202999,0.176328487502053
"650","USA",2015-02-01,0.000215389068487616,17357890.5066828,0.17849374847929
"651","USA",2015-03-01,0.000205865220889974,17218627.917633,0.180953656711755
"652","USA",2015-04-01,0.000203997443561155,17396044.6991284,0.19502368625333
"653","USA",2015-05-01,0.000204090731234652,17376762.0026312,0.208019119118547
"654","USA",2015-06-01,0.000205660103208246,17444273.3286194,0.210243383950318
"655","USA",2015-07-01,0.000206222875829242,17435963.8233646,0.198270862943627
"656","USA",2015-08-01,0.000204245257567471,17441717.9944777,0.18449367388386
"657","USA",2015-09-01,0.000206327114111986,17512068.6123069,0.186252506537877
"658","USA",2015-10-01,0.000202356189129301,17484719.0487376,0.181517154750122
"659","USA",2015-11-01,0.000198651638431829,17440929.8879596,0.169966783839643
"660","USA",2015-12-01,0.000194947221288234,17481055.9365067,0.160514881166017
"661","USA",2016-01-01,0.000201137724981609,17509252.2452266,0.14375768667295
"662","USA",2016-02-01,0.000205949976387728,17505455.2624992,0.145518342289634
"663","USA",2016-03-01,0.000194553213979617,17655866.1619473,0.163592561704761
"664","USA",2016-04-01,0.000203330070716637,17651066.3664414,0.16956973318236
"665","USA",2016-05-01,0.000202133716329727,17610845.495177,0.18261243541689
"666","USA",2016-06-01,0.000206813996659905,17656300.1851032,0.187189193813292
"667","USA",2016-07-01,0.000207203878291475,17624729.2571404,0.183469351213784
"668","USA",2016-08-01,0.000209907684356768,17763176.8693885,0.180562322294759
"669","USA",2016-09-01,0.000207778149498663,17817119.933219,0.184837222157782
"670","USA",2016-10-01,0.000203100728780478,17727464.6071554,0.188143145733484
"671","USA",2016-11-01,0.000199440809058747,17864146.7823324,0.180578214799154
"672","USA",2016-12-01,0.000211366614098494,17880920.1349361,0.182226068533742
"673","USA",2017-01-01,0.000199246980213094,17864158.2869807,0.186052167992829
"674","USA",2017-02-01,0.000190737951820671,17907155.3706556,0.194328601662836
"675","USA",2017-03-01,0.000205407296439473,18004343.8238014,0.190991413189667
"676","USA",2017-04-01,0.00020339032456307,17877562.4851816,0.199779100702869
"677","USA",2017-05-01,0.000207872366706188,18050862.7440818,0.200164937067298
"678","USA",2017-06-01,0.000207619691879543,18134626.4157014,0.199782038383896
"679","USA",2017-07-01,0.000206479214243352,18125441.1384386,0.195270930074912
"680","USA",2017-08-01,0.000204077377156021,18153334.8739512,0.195455220173589
"681","USA",2017-09-01,0.000204638608845381,18211743.3474559,0.202719643322287
"682","USA",2017-10-01,0.000208029432564785,18233514.2290634,0.2018609739142
"683","USA",2017-11-01,0.000210441075643875,18349987.5220394,0.204886418579041
"684","USA",2017-12-01,0.00021473356082755,18383710.193675,0.197940081802108
"685","USA",2018-01-01,0.000214432440419926,18413003.0616488,0.210050539794269
"686","USA",2018-02-01,0.000201965389704717,18453701.6551175,0.211604417340038
"687","USA",2018-03-01,0.000212394334500329,18447887.3591521,0.211350396268622
"688","USA",2018-04-01,0.000215480236552018,18523809.6677293,0.221134637066914
"689","USA",2018-05-01,0.000212862172168371,18664410.9709294,0.238182416691601
"690","USA",2018-06-01,0.000212503350293106,18606050.8080918,0.235393640764016
"691","USA",2018-07-01,0.000211004520257327,18739037.3772137,0.234402386119413
"692","USA",2018-08-01,0.000213702712073686,18716752.329929,0.232268458554763
"693","USA",2018-09-01,0.00021093237246751,18742290.3460821,0.228383187412162
"694","USA",2018-10-01,0.000214434534012507,18826467.8356997,0.225400972640541
"695","USA",2018-11-01,0.000220828235863847,18753979.9560858,0.203544903794414
"696","USA",2018-12-01,0.000209955556488703,18770099.2023136,0.191482006758139
"697","USA",2019-01-01,0.000211050737920222,18998454.0531104,0.183067015414564
"698","USA",2019-02-01,0.000209432728171901,18901710.3388444,0.191315195529117
"699","USA",2019-03-01,0.000211647152741976,18881576.2732886,0.207497868972912
"700","USA",2019-04-01,0.00020831706034503,18990269.3128122,0.226727763503257
"701","USA",2019-05-01,0.0002108202304921,19033490.6884913,0.224671089640585
"702","USA",2019-06-01,0.000206129035480104,19041694.6119904,0.216954996161716
"703","USA",2019-07-01,0.000210020893228689,19110487.6454432,0.216519630548281
"704","USA",2019-08-01,0.000210353251292696,19094109.8652008,0.213634356428396
"705","USA",2019-09-01,0.000211608344297031,19158999.3910028,0.213334650136882
